[api-updater (non-obsolete-error-filter)] 11.02.2021 18:46:14 : Starting E:/UnityProg/2020.2.3f1/Editor/Data/Tools/ScriptUpdater/APIUpdater.NonObsoleteApiUpdaterDetector.exe
[api-updater (non-obsolete-error-filter)] 
----------------------------------
jit/startup time      : 5743,4804ms
moved types parse time: 118ms
candidates parse time : 1ms
C# parse time         : 1744ms
candidates check time : 77ms
console write time    : 7ms

[api-updater (non-obsolete-error-filter)] 11.02.2021 21:34:10 : Starting E:/UnityProg/2020.2.3f1/Editor/Data/Tools/ScriptUpdater/APIUpdater.NonObsoleteApiUpdaterDetector.exe
[api-updater (non-obsolete-error-filter)] 
----------------------------------
jit/startup time      : 1235,6696ms
moved types parse time: 560ms
candidates parse time : 57ms
C# parse time         : 925ms
candidates check time : 55ms
console write time    : 6ms

[api-updater (non-obsolete-error-filter)] 25.04.2021 20:43:13 : Starting E:/UnityProg/2020.2.3f1/Editor/Data/Tools/ScriptUpdater/APIUpdater.NonObsoleteApiUpdaterDetector.exe
[api-updater (non-obsolete-error-filter)] 
----------------------------------
jit/startup time      : 3211,2675ms
moved types parse time: 179ms
candidates parse time : 2ms
C# parse time         : 2669ms
candidates check time : 102ms
console write time    : 13ms

[api-updater (non-obsolete-error-filter)] 25.04.2021 20:43:58 : Starting E:/UnityProg/2020.2.3f1/Editor/Data/Tools/ScriptUpdater/APIUpdater.NonObsoleteApiUpdaterDetector.exe
[api-updater (non-obsolete-error-filter)] 
----------------------------------
jit/startup time      : 66,9622ms
moved types parse time: 72ms
candidates parse time : 1ms
C# parse time         : 299ms
candidates check time : 110ms
console write time    : 1ms

[api-updater (non-obsolete-error-filter)] 08.05.2021 21:34:21 : Starting E:/UnityProg/2020.3.0f1/Editor/Data/Tools/ScriptUpdater/APIUpdater.NonObsoleteApiUpdaterDetector.exe
[api-updater (non-obsolete-error-filter)] 
----------------------------------
jit/startup time      : 1605,9103ms
moved types parse time: 200ms
candidates parse time : 1ms
C# parse time         : 692ms
candidates check time : 100ms
console write time    : 8ms

[api-updater (non-obsolete-error-filter)] 09.05.2021 18:05:55 : Starting E:/UnityProg/2020.3.0f1/Editor/Data/Tools/ScriptUpdater/APIUpdater.NonObsoleteApiUpdaterDetector.exe
[api-updater (non-obsolete-error-filter)] 
----------------------------------
jit/startup time      : 1533,0202ms
moved types parse time: 301ms
candidates parse time : 1ms
C# parse time         : 863ms
candidates check time : 102ms
console write time    : 28ms

[api-updater (non-obsolete-error-filter)] 01.06.2021 16:08:18 : Starting E:/UnityProg/2020.3.0f1/Editor/Data/Tools/ScriptUpdater/APIUpdater.NonObsoleteApiUpdaterDetector.exe
[api-updater (non-obsolete-error-filter)] 
----------------------------------
jit/startup time      : 2150,3562ms
moved types parse time: 449ms
candidates parse time : 2ms
C# parse time         : 4181ms
candidates check time : 153ms
console write time    : 119ms

[api-updater (non-obsolete-error-filter)] 06.06.2021 19:15:04 : Starting E:/UnityProg/2020.3.0f1/Editor/Data/Tools/ScriptUpdater/APIUpdater.NonObsoleteApiUpdaterDetector.exe
[api-updater (non-obsolete-error-filter)] 
----------------------------------
jit/startup time      : 275,9775ms
moved types parse time: 157ms
candidates parse time : 2ms
C# parse time         : 810ms
candidates check time : 100ms
console write time    : 35ms

