Library\Bee\artifacts\movedfrom\UnityEngine.UI.ref.dll_18079379552747940837.movedfrom
Library\Bee\artifacts\movedfrom\UnityEngine.AccessibilityModule.dll_7965262278760650032.movedfrom
Library\Bee\artifacts\movedfrom\UnityEngine.AIModule.dll_5771143099322070090.movedfrom
Library\Bee\artifacts\movedfrom\UnityEngine.AndroidJNIModule.dll_18036894556303712008.movedfrom
Library\Bee\artifacts\movedfrom\UnityEngine.AnimationModule.dll_7312797775282628566.movedfrom
Library\Bee\artifacts\movedfrom\UnityEngine.ARModule.dll_687358688211981075.movedfrom
Library\Bee\artifacts\movedfrom\UnityEngine.AssetBundleModule.dll_16480987009025439172.movedfrom
Library\Bee\artifacts\movedfrom\UnityEngine.AudioModule.dll_8861835168282796872.movedfrom
Library\Bee\artifacts\movedfrom\UnityEngine.ClothModule.dll_16277114187219223084.movedfrom
Library\Bee\artifacts\movedfrom\UnityEngine.ClusterInputModule.dll_4636052860787817778.movedfrom
Library\Bee\artifacts\movedfrom\UnityEngine.ClusterRendererModule.dll_5167434281609777775.movedfrom
Library\Bee\artifacts\movedfrom\UnityEngine.CoreModule.dll_8583330590611180513.movedfrom
Library\Bee\artifacts\movedfrom\UnityEngine.CrashReportingModule.dll_5754344160288429593.movedfrom
Library\Bee\artifacts\movedfrom\UnityEngine.DirectorModule.dll_1835464796420131390.movedfrom
Library\Bee\artifacts\movedfrom\UnityEngine.dll_5181888618185750500.movedfrom
Library\Bee\artifacts\movedfrom\UnityEngine.DSPGraphModule.dll_2218659345241742175.movedfrom
Library\Bee\artifacts\movedfrom\UnityEngine.GameCenterModule.dll_2638324484249604089.movedfrom
Library\Bee\artifacts\movedfrom\UnityEngine.GIModule.dll_16740866214485089380.movedfrom
Library\Bee\artifacts\movedfrom\UnityEngine.GridModule.dll_6093152181076369880.movedfrom
Library\Bee\artifacts\movedfrom\UnityEngine.HotReloadModule.dll_16628702536860173144.movedfrom
Library\Bee\artifacts\movedfrom\UnityEngine.ImageConversionModule.dll_12945711247594850915.movedfrom
Library\Bee\artifacts\movedfrom\UnityEngine.IMGUIModule.dll_12923975820954892073.movedfrom
Library\Bee\artifacts\movedfrom\UnityEngine.InputLegacyModule.dll_8502045662420642741.movedfrom
Library\Bee\artifacts\movedfrom\UnityEngine.InputModule.dll_16244861893138155500.movedfrom
Library\Bee\artifacts\movedfrom\UnityEngine.JSONSerializeModule.dll_14889416121644234170.movedfrom
Library\Bee\artifacts\movedfrom\UnityEngine.LocalizationModule.dll_9125238245446971435.movedfrom
Library\Bee\artifacts\movedfrom\UnityEngine.ParticleSystemModule.dll_11740271607630225831.movedfrom
Library\Bee\artifacts\movedfrom\UnityEngine.PerformanceReportingModule.dll_8822019806074585504.movedfrom
Library\Bee\artifacts\movedfrom\UnityEngine.Physics2DModule.dll_12835882110094532459.movedfrom
Library\Bee\artifacts\movedfrom\UnityEngine.PhysicsModule.dll_3318913778595907353.movedfrom
Library\Bee\artifacts\movedfrom\UnityEngine.ProfilerModule.dll_5458110653350072651.movedfrom
Library\Bee\artifacts\movedfrom\UnityEngine.RuntimeInitializeOnLoadManagerInitializerModule.dll_14934708810787497524.movedfrom
Library\Bee\artifacts\movedfrom\UnityEngine.ScreenCaptureModule.dll_16756067479297483292.movedfrom
Library\Bee\artifacts\movedfrom\UnityEngine.SharedInternalsModule.dll_4015423748044326323.movedfrom
Library\Bee\artifacts\movedfrom\UnityEngine.SpriteMaskModule.dll_993510683714348403.movedfrom
Library\Bee\artifacts\movedfrom\UnityEngine.SpriteShapeModule.dll_18309779800332185038.movedfrom
Library\Bee\artifacts\movedfrom\UnityEngine.StreamingModule.dll_1878339854140743444.movedfrom
Library\Bee\artifacts\movedfrom\UnityEngine.SubstanceModule.dll_17779165068531309858.movedfrom
Library\Bee\artifacts\movedfrom\UnityEngine.SubsystemsModule.dll_8680423392964332934.movedfrom
Library\Bee\artifacts\movedfrom\UnityEngine.TerrainModule.dll_5212250187914416135.movedfrom
Library\Bee\artifacts\movedfrom\UnityEngine.TerrainPhysicsModule.dll_11774797179404311604.movedfrom
Library\Bee\artifacts\movedfrom\UnityEngine.TextCoreModule.dll_12840806439998569038.movedfrom
Library\Bee\artifacts\movedfrom\UnityEngine.TextRenderingModule.dll_1281543075024855569.movedfrom
Library\Bee\artifacts\movedfrom\UnityEngine.TilemapModule.dll_16668395544184811792.movedfrom
Library\Bee\artifacts\movedfrom\UnityEngine.TLSModule.dll_14857104102160935341.movedfrom
Library\Bee\artifacts\movedfrom\UnityEngine.UIElementsModule.dll_8986212317029828989.movedfrom
Library\Bee\artifacts\movedfrom\UnityEngine.UIElementsNativeModule.dll_2284359488654562996.movedfrom
Library\Bee\artifacts\movedfrom\UnityEngine.UIModule.dll_5443398669113031158.movedfrom
Library\Bee\artifacts\movedfrom\UnityEngine.UmbraModule.dll_17712723557419978427.movedfrom
Library\Bee\artifacts\movedfrom\UnityEngine.UNETModule.dll_703799159918854490.movedfrom
Library\Bee\artifacts\movedfrom\UnityEngine.UnityAnalyticsModule.dll_14018935555581981603.movedfrom
Library\Bee\artifacts\movedfrom\UnityEngine.UnityConnectModule.dll_12545234695214934807.movedfrom
Library\Bee\artifacts\movedfrom\UnityEngine.UnityCurlModule.dll_10995793604270676419.movedfrom
Library\Bee\artifacts\movedfrom\UnityEngine.UnityTestProtocolModule.dll_11051207758049628081.movedfrom
Library\Bee\artifacts\movedfrom\UnityEngine.UnityWebRequestAssetBundleModule.dll_3488795544932866228.movedfrom
Library\Bee\artifacts\movedfrom\UnityEngine.UnityWebRequestAudioModule.dll_17467897405922085944.movedfrom
Library\Bee\artifacts\movedfrom\UnityEngine.UnityWebRequestModule.dll_14215453294446257378.movedfrom
Library\Bee\artifacts\movedfrom\UnityEngine.UnityWebRequestTextureModule.dll_12117702008981608717.movedfrom
Library\Bee\artifacts\movedfrom\UnityEngine.UnityWebRequestWWWModule.dll_12365015351893893577.movedfrom
Library\Bee\artifacts\movedfrom\UnityEngine.VehiclesModule.dll_10465198958321146329.movedfrom
Library\Bee\artifacts\movedfrom\UnityEngine.VFXModule.dll_5696387111947244314.movedfrom
Library\Bee\artifacts\movedfrom\UnityEngine.VideoModule.dll_11530645016542281453.movedfrom
Library\Bee\artifacts\movedfrom\UnityEngine.VirtualTexturingModule.dll_4918037758934177599.movedfrom
Library\Bee\artifacts\movedfrom\UnityEngine.VRModule.dll_11411273480718221166.movedfrom
Library\Bee\artifacts\movedfrom\UnityEngine.WindModule.dll_17108322702551550538.movedfrom
Library\Bee\artifacts\movedfrom\UnityEngine.XRModule.dll_15067847852439227596.movedfrom