%YAML 1.1
%TAG !u! tag:unity3d.com,2011:
--- !u!74 &7400000
AnimationClip:
  m_ObjectHideFlags: 0
  m_CorrespondingSourceObject: {fileID: 0}
  m_PrefabInstance: {fileID: 0}
  m_PrefabAsset: {fileID: 0}
  m_Name: Fire
  serializedVersion: 6
  m_Legacy: 0
  m_Compressed: 0
  m_UseHighQualityCurve: 1
  m_RotationCurves: []
  m_CompressedRotationCurves: []
  m_EulerCurves: []
  m_PositionCurves: []
  m_ScaleCurves: []
  m_FloatCurves: []
  m_PPtrCurves:
  - curve:
    - time: 0
      value: {fileID: -5191560012930343914, guid: a59ac46ccb9cc994e9d955170a3ef24b,
        type: 3}
    - time: 0.033333335
      value: {fileID: -5245563643001373961, guid: a59ac46ccb9cc994e9d955170a3ef24b,
        type: 3}
    - time: 0.05
      value: {fileID: 5324726990247446657, guid: a59ac46ccb9cc994e9d955170a3ef24b,
        type: 3}
    - time: 0.11666667
      value: {fileID: -3163820152844129170, guid: a59ac46ccb9cc994e9d955170a3ef24b,
        type: 3}
    - time: 0.13333334
      value: {fileID: -7565643244372308533, guid: a59ac46ccb9cc994e9d955170a3ef24b,
        type: 3}
    - time: 0.16666667
      value: {fileID: 6673685330064344150, guid: a59ac46ccb9cc994e9d955170a3ef24b,
        type: 3}
    - time: 0.21666667
      value: {fileID: -6210782346363529571, guid: a59ac46ccb9cc994e9d955170a3ef24b,
        type: 3}
    - time: 0.25
      value: {fileID: 6197778465531851165, guid: a59ac46ccb9cc994e9d955170a3ef24b,
        type: 3}
    - time: 0.28333333
      value: {fileID: 287977739070816548, guid: a59ac46ccb9cc994e9d955170a3ef24b,
        type: 3}
    - time: 0.3
      value: {fileID: 8764495190648424564, guid: a59ac46ccb9cc994e9d955170a3ef24b,
        type: 3}
    - time: 0.36666667
      value: {fileID: 4722564165119796450, guid: a59ac46ccb9cc994e9d955170a3ef24b,
        type: 3}
    - time: 0.38333333
      value: {fileID: -6271821137981940310, guid: a59ac46ccb9cc994e9d955170a3ef24b,
        type: 3}
    - time: 0.41666666
      value: {fileID: 9077245369421664217, guid: a59ac46ccb9cc994e9d955170a3ef24b,
        type: 3}
    - time: 0.45
      value: {fileID: 5746401141044996257, guid: a59ac46ccb9cc994e9d955170a3ef24b,
        type: 3}
    - time: 0.5
      value: {fileID: 4197011734909203210, guid: a59ac46ccb9cc994e9d955170a3ef24b,
        type: 3}
    - time: 0.53333336
      value: {fileID: 646268772769614163, guid: a59ac46ccb9cc994e9d955170a3ef24b,
        type: 3}
    - time: 0.55
      value: {fileID: -2083321408689418627, guid: a59ac46ccb9cc994e9d955170a3ef24b,
        type: 3}
    - time: 0.5833333
      value: {fileID: 4082346930582372641, guid: a59ac46ccb9cc994e9d955170a3ef24b,
        type: 3}
    - time: 0.6166667
      value: {fileID: -8978648569646812320, guid: a59ac46ccb9cc994e9d955170a3ef24b,
        type: 3}
    - time: 0.6666667
      value: {fileID: 3571672604755238330, guid: a59ac46ccb9cc994e9d955170a3ef24b,
        type: 3}
    - time: 0.7
      value: {fileID: -7337635425711217139, guid: a59ac46ccb9cc994e9d955170a3ef24b,
        type: 3}
    - time: 0.71666664
      value: {fileID: -4776027139939039373, guid: a59ac46ccb9cc994e9d955170a3ef24b,
        type: 3}
    - time: 0.78333336
      value: {fileID: -4262617568847829381, guid: a59ac46ccb9cc994e9d955170a3ef24b,
        type: 3}
    - time: 0.8
      value: {fileID: 4338014438842064762, guid: a59ac46ccb9cc994e9d955170a3ef24b,
        type: 3}
    - time: 0.8333333
      value: {fileID: -8829760923092730638, guid: a59ac46ccb9cc994e9d955170a3ef24b,
        type: 3}
    attribute: m_Sprite
    path: 
    classID: 212
    script: {fileID: 0}
  m_SampleRate: 60
  m_WrapMode: 0
  m_Bounds:
    m_Center: {x: 0, y: 0, z: 0}
    m_Extent: {x: 0, y: 0, z: 0}
  m_ClipBindingConstant:
    genericBindings:
    - serializedVersion: 2
      path: 0
      attribute: 0
      script: {fileID: 0}
      typeID: 212
      customType: 23
      isPPtrCurve: 1
    pptrCurveMapping:
    - {fileID: -5191560012930343914, guid: a59ac46ccb9cc994e9d955170a3ef24b, type: 3}
    - {fileID: -5245563643001373961, guid: a59ac46ccb9cc994e9d955170a3ef24b, type: 3}
    - {fileID: 5324726990247446657, guid: a59ac46ccb9cc994e9d955170a3ef24b, type: 3}
    - {fileID: -3163820152844129170, guid: a59ac46ccb9cc994e9d955170a3ef24b, type: 3}
    - {fileID: -7565643244372308533, guid: a59ac46ccb9cc994e9d955170a3ef24b, type: 3}
    - {fileID: 6673685330064344150, guid: a59ac46ccb9cc994e9d955170a3ef24b, type: 3}
    - {fileID: -6210782346363529571, guid: a59ac46ccb9cc994e9d955170a3ef24b, type: 3}
    - {fileID: 6197778465531851165, guid: a59ac46ccb9cc994e9d955170a3ef24b, type: 3}
    - {fileID: 287977739070816548, guid: a59ac46ccb9cc994e9d955170a3ef24b, type: 3}
    - {fileID: 8764495190648424564, guid: a59ac46ccb9cc994e9d955170a3ef24b, type: 3}
    - {fileID: 4722564165119796450, guid: a59ac46ccb9cc994e9d955170a3ef24b, type: 3}
    - {fileID: -6271821137981940310, guid: a59ac46ccb9cc994e9d955170a3ef24b, type: 3}
    - {fileID: 9077245369421664217, guid: a59ac46ccb9cc994e9d955170a3ef24b, type: 3}
    - {fileID: 5746401141044996257, guid: a59ac46ccb9cc994e9d955170a3ef24b, type: 3}
    - {fileID: 4197011734909203210, guid: a59ac46ccb9cc994e9d955170a3ef24b, type: 3}
    - {fileID: 646268772769614163, guid: a59ac46ccb9cc994e9d955170a3ef24b, type: 3}
    - {fileID: -2083321408689418627, guid: a59ac46ccb9cc994e9d955170a3ef24b, type: 3}
    - {fileID: 4082346930582372641, guid: a59ac46ccb9cc994e9d955170a3ef24b, type: 3}
    - {fileID: -8978648569646812320, guid: a59ac46ccb9cc994e9d955170a3ef24b, type: 3}
    - {fileID: 3571672604755238330, guid: a59ac46ccb9cc994e9d955170a3ef24b, type: 3}
    - {fileID: -7337635425711217139, guid: a59ac46ccb9cc994e9d955170a3ef24b, type: 3}
    - {fileID: -4776027139939039373, guid: a59ac46ccb9cc994e9d955170a3ef24b, type: 3}
    - {fileID: -4262617568847829381, guid: a59ac46ccb9cc994e9d955170a3ef24b, type: 3}
    - {fileID: 4338014438842064762, guid: a59ac46ccb9cc994e9d955170a3ef24b, type: 3}
    - {fileID: -8829760923092730638, guid: a59ac46ccb9cc994e9d955170a3ef24b, type: 3}
  m_AnimationClipSettings:
    serializedVersion: 2
    m_AdditiveReferencePoseClip: {fileID: 0}
    m_AdditiveReferencePoseTime: 0
    m_StartTime: 0
    m_StopTime: 0.84999996
    m_OrientationOffsetY: 0
    m_Level: 0
    m_CycleOffset: 0
    m_HasAdditiveReferencePose: 0
    m_LoopTime: 0
    m_LoopBlend: 0
    m_LoopBlendOrientation: 0
    m_LoopBlendPositionY: 0
    m_LoopBlendPositionXZ: 0
    m_KeepOriginalOrientation: 0
    m_KeepOriginalPositionY: 1
    m_KeepOriginalPositionXZ: 0
    m_HeightFromFeet: 0
    m_Mirror: 0
  m_EditorCurves: []
  m_EulerEditorCurves: []
  m_HasGenericRootTransform: 0
  m_HasMotionFloatCurves: 0
  m_Events: []
