-target:library
-out:"Library/Bee/artifacts/1900b0aE.dag/UniRx.dll"
-refout:"Library/Bee/artifacts/1900b0aE.dag/UniRx.ref.dll"
-define:UNITY_2021_1_10
-define:UNITY_2021_1
-define:UNITY_2021
-define:UNITY_5_3_OR_NEWER
-define:UNITY_5_4_OR_NEWER
-define:UNITY_5_5_OR_NEWER
-define:UNITY_5_6_OR_NEWER
-define:UNITY_2017_1_OR_NEWER
-define:UNITY_2017_2_OR_NEWER
-define:UNITY_2017_3_OR_NEWER
-define:UNITY_2017_4_OR_NEWER
-define:UNITY_2018_1_OR_NEWER
-define:UNITY_2018_2_OR_NEWER
-define:UNITY_2018_3_OR_NEWER
-define:UNITY_2018_4_OR_NEWER
-define:UNITY_2019_1_OR_NEWER
-define:UNITY_2019_2_OR_NEWER
-define:UNITY_2019_3_OR_NEWER
-define:UNITY_2019_4_OR_NEWER
-define:UNITY_2020_1_OR_NEWER
-define:UNITY_2020_2_OR_NEWER
-define:UNITY_2020_3_OR_NEWER
-define:UNITY_2021_1_OR_NEWER
-define:PLATFORM_ARCH_64
-define:UNITY_64
-define:UNITY_INCLUDE_TESTS
-define:USE_SEARCH_ENGINE_API
-define:USE_QUICK_SEARCH_MODULE
-define:SCENE_TEMPLATE_MODULE
-define:ENABLE_AR
-define:ENABLE_AUDIO
-define:ENABLE_CACHING
-define:ENABLE_CLOTH
-define:ENABLE_EVENT_QUEUE
-define:ENABLE_MICROPHONE
-define:ENABLE_MULTIPLE_DISPLAYS
-define:ENABLE_PHYSICS
-define:ENABLE_TEXTURE_STREAMING
-define:ENABLE_VIRTUALTEXTURING
-define:ENABLE_UNET
-define:ENABLE_LZMA
-define:ENABLE_UNITYEVENTS
-define:ENABLE_VR
-define:ENABLE_WEBCAM
-define:ENABLE_UNITYWEBREQUEST
-define:ENABLE_WWW
-define:ENABLE_CLOUD_SERVICES
-define:ENABLE_CLOUD_SERVICES_COLLAB
-define:ENABLE_CLOUD_SERVICES_COLLAB_SOFTLOCKS
-define:ENABLE_CLOUD_SERVICES_ADS
-define:ENABLE_CLOUD_SERVICES_USE_WEBREQUEST
-define:ENABLE_CLOUD_SERVICES_CRASH_REPORTING
-define:ENABLE_CLOUD_SERVICES_PURCHASING
-define:ENABLE_CLOUD_SERVICES_ANALYTICS
-define:ENABLE_CLOUD_SERVICES_UNET
-define:ENABLE_CLOUD_SERVICES_BUILD
-define:ENABLE_CLOUD_LICENSE
-define:ENABLE_EDITOR_HUB_LICENSE
-define:ENABLE_WEBSOCKET_CLIENT
-define:ENABLE_DIRECTOR_AUDIO
-define:ENABLE_DIRECTOR_TEXTURE
-define:ENABLE_MANAGED_JOBS
-define:ENABLE_MANAGED_TRANSFORM_JOBS
-define:ENABLE_MANAGED_ANIMATION_JOBS
-define:ENABLE_MANAGED_AUDIO_JOBS
-define:INCLUDE_DYNAMIC_GI
-define:ENABLE_MONO_BDWGC
-define:ENABLE_SCRIPTING_GC_WBARRIERS
-define:PLATFORM_SUPPORTS_MONO
-define:RENDER_SOFTWARE_CURSOR
-define:ENABLE_VIDEO
-define:PLATFORM_STANDALONE
-define:PLATFORM_STANDALONE_WIN
-define:UNITY_STANDALONE_WIN
-define:UNITY_STANDALONE
-define:ENABLE_RUNTIME_GI
-define:ENABLE_MOVIES
-define:ENABLE_NETWORK
-define:ENABLE_CRUNCH_TEXTURE_COMPRESSION
-define:ENABLE_OUT_OF_PROCESS_CRASH_HANDLER
-define:ENABLE_CLUSTER_SYNC
-define:ENABLE_CLUSTERINPUT
-define:PLATFORM_UPDATES_TIME_OUTSIDE_OF_PLAYER_LOOP
-define:GFXDEVICE_WAITFOREVENT_MESSAGEPUMP
-define:ENABLE_WEBSOCKET_HOST
-define:ENABLE_MONO
-define:NET_4_6
-define:ENABLE_PROFILER
-define:DEBUG
-define:TRACE
-define:UNITY_ASSERTIONS
-define:UNITY_EDITOR
-define:UNITY_EDITOR_64
-define:UNITY_EDITOR_WIN
-define:ENABLE_UNITY_COLLECTIONS_CHECKS
-define:ENABLE_BURST_AOT
-define:UNITY_TEAM_LICENSE
-define:ENABLE_CUSTOM_RENDER_TEXTURE
-define:ENABLE_DIRECTOR
-define:ENABLE_LOCALIZATION
-define:ENABLE_SPRITES
-define:ENABLE_TERRAIN
-define:ENABLE_TILEMAP
-define:ENABLE_TIMELINE
-define:ENABLE_LEGACY_INPUT_MANAGER
-define:CSHARP_7_OR_LATER
-define:CSHARP_7_3_OR_NEWER
-r:"C:/Program Files/UnityEditor/2021.1.10f1/Editor/Data/Managed/UnityEditor.Graphs.dll"
-r:"C:/Program Files/UnityEditor/2021.1.10f1/Editor/Data/Managed/UnityEngine/UnityEditor.CoreModule.dll"
-r:"C:/Program Files/UnityEditor/2021.1.10f1/Editor/Data/Managed/UnityEngine/UnityEditor.DeviceSimulatorModule.dll"
-r:"C:/Program Files/UnityEditor/2021.1.10f1/Editor/Data/Managed/UnityEngine/UnityEditor.dll"
-r:"C:/Program Files/UnityEditor/2021.1.10f1/Editor/Data/Managed/UnityEngine/UnityEditor.GraphViewModule.dll"
-r:"C:/Program Files/UnityEditor/2021.1.10f1/Editor/Data/Managed/UnityEngine/UnityEditor.PackageManagerUIModule.dll"
-r:"C:/Program Files/UnityEditor/2021.1.10f1/Editor/Data/Managed/UnityEngine/UnityEditor.QuickSearchModule.dll"
-r:"C:/Program Files/UnityEditor/2021.1.10f1/Editor/Data/Managed/UnityEngine/UnityEditor.SceneTemplateModule.dll"
-r:"C:/Program Files/UnityEditor/2021.1.10f1/Editor/Data/Managed/UnityEngine/UnityEditor.UIBuilderModule.dll"
-r:"C:/Program Files/UnityEditor/2021.1.10f1/Editor/Data/Managed/UnityEngine/UnityEditor.UIElementsModule.dll"
-r:"C:/Program Files/UnityEditor/2021.1.10f1/Editor/Data/Managed/UnityEngine/UnityEditor.UIElementsSamplesModule.dll"
-r:"C:/Program Files/UnityEditor/2021.1.10f1/Editor/Data/Managed/UnityEngine/UnityEditor.UIServiceModule.dll"
-r:"C:/Program Files/UnityEditor/2021.1.10f1/Editor/Data/Managed/UnityEngine/UnityEditor.UnityConnectModule.dll"
-r:"C:/Program Files/UnityEditor/2021.1.10f1/Editor/Data/Managed/UnityEngine/UnityEngine.AccessibilityModule.dll"
-r:"C:/Program Files/UnityEditor/2021.1.10f1/Editor/Data/Managed/UnityEngine/UnityEngine.AIModule.dll"
-r:"C:/Program Files/UnityEditor/2021.1.10f1/Editor/Data/Managed/UnityEngine/UnityEngine.AndroidJNIModule.dll"
-r:"C:/Program Files/UnityEditor/2021.1.10f1/Editor/Data/Managed/UnityEngine/UnityEngine.AnimationModule.dll"
-r:"C:/Program Files/UnityEditor/2021.1.10f1/Editor/Data/Managed/UnityEngine/UnityEngine.ARModule.dll"
-r:"C:/Program Files/UnityEditor/2021.1.10f1/Editor/Data/Managed/UnityEngine/UnityEngine.AssetBundleModule.dll"
-r:"C:/Program Files/UnityEditor/2021.1.10f1/Editor/Data/Managed/UnityEngine/UnityEngine.AudioModule.dll"
-r:"C:/Program Files/UnityEditor/2021.1.10f1/Editor/Data/Managed/UnityEngine/UnityEngine.ClothModule.dll"
-r:"C:/Program Files/UnityEditor/2021.1.10f1/Editor/Data/Managed/UnityEngine/UnityEngine.ClusterInputModule.dll"
-r:"C:/Program Files/UnityEditor/2021.1.10f1/Editor/Data/Managed/UnityEngine/UnityEngine.ClusterRendererModule.dll"
-r:"C:/Program Files/UnityEditor/2021.1.10f1/Editor/Data/Managed/UnityEngine/UnityEngine.CoreModule.dll"
-r:"C:/Program Files/UnityEditor/2021.1.10f1/Editor/Data/Managed/UnityEngine/UnityEngine.CrashReportingModule.dll"
-r:"C:/Program Files/UnityEditor/2021.1.10f1/Editor/Data/Managed/UnityEngine/UnityEngine.DirectorModule.dll"
-r:"C:/Program Files/UnityEditor/2021.1.10f1/Editor/Data/Managed/UnityEngine/UnityEngine.dll"
-r:"C:/Program Files/UnityEditor/2021.1.10f1/Editor/Data/Managed/UnityEngine/UnityEngine.DSPGraphModule.dll"
-r:"C:/Program Files/UnityEditor/2021.1.10f1/Editor/Data/Managed/UnityEngine/UnityEngine.GameCenterModule.dll"
-r:"C:/Program Files/UnityEditor/2021.1.10f1/Editor/Data/Managed/UnityEngine/UnityEngine.GIModule.dll"
-r:"C:/Program Files/UnityEditor/2021.1.10f1/Editor/Data/Managed/UnityEngine/UnityEngine.GridModule.dll"
-r:"C:/Program Files/UnityEditor/2021.1.10f1/Editor/Data/Managed/UnityEngine/UnityEngine.HotReloadModule.dll"
-r:"C:/Program Files/UnityEditor/2021.1.10f1/Editor/Data/Managed/UnityEngine/UnityEngine.ImageConversionModule.dll"
-r:"C:/Program Files/UnityEditor/2021.1.10f1/Editor/Data/Managed/UnityEngine/UnityEngine.IMGUIModule.dll"
-r:"C:/Program Files/UnityEditor/2021.1.10f1/Editor/Data/Managed/UnityEngine/UnityEngine.InputLegacyModule.dll"
-r:"C:/Program Files/UnityEditor/2021.1.10f1/Editor/Data/Managed/UnityEngine/UnityEngine.InputModule.dll"
-r:"C:/Program Files/UnityEditor/2021.1.10f1/Editor/Data/Managed/UnityEngine/UnityEngine.JSONSerializeModule.dll"
-r:"C:/Program Files/UnityEditor/2021.1.10f1/Editor/Data/Managed/UnityEngine/UnityEngine.LocalizationModule.dll"
-r:"C:/Program Files/UnityEditor/2021.1.10f1/Editor/Data/Managed/UnityEngine/UnityEngine.ParticleSystemModule.dll"
-r:"C:/Program Files/UnityEditor/2021.1.10f1/Editor/Data/Managed/UnityEngine/UnityEngine.PerformanceReportingModule.dll"
-r:"C:/Program Files/UnityEditor/2021.1.10f1/Editor/Data/Managed/UnityEngine/UnityEngine.Physics2DModule.dll"
-r:"C:/Program Files/UnityEditor/2021.1.10f1/Editor/Data/Managed/UnityEngine/UnityEngine.PhysicsModule.dll"
-r:"C:/Program Files/UnityEditor/2021.1.10f1/Editor/Data/Managed/UnityEngine/UnityEngine.ProfilerModule.dll"
-r:"C:/Program Files/UnityEditor/2021.1.10f1/Editor/Data/Managed/UnityEngine/UnityEngine.RuntimeInitializeOnLoadManagerInitializerModule.dll"
-r:"C:/Program Files/UnityEditor/2021.1.10f1/Editor/Data/Managed/UnityEngine/UnityEngine.ScreenCaptureModule.dll"
-r:"C:/Program Files/UnityEditor/2021.1.10f1/Editor/Data/Managed/UnityEngine/UnityEngine.SharedInternalsModule.dll"
-r:"C:/Program Files/UnityEditor/2021.1.10f1/Editor/Data/Managed/UnityEngine/UnityEngine.SpriteMaskModule.dll"
-r:"C:/Program Files/UnityEditor/2021.1.10f1/Editor/Data/Managed/UnityEngine/UnityEngine.SpriteShapeModule.dll"
-r:"C:/Program Files/UnityEditor/2021.1.10f1/Editor/Data/Managed/UnityEngine/UnityEngine.StreamingModule.dll"
-r:"C:/Program Files/UnityEditor/2021.1.10f1/Editor/Data/Managed/UnityEngine/UnityEngine.SubstanceModule.dll"
-r:"C:/Program Files/UnityEditor/2021.1.10f1/Editor/Data/Managed/UnityEngine/UnityEngine.SubsystemsModule.dll"
-r:"C:/Program Files/UnityEditor/2021.1.10f1/Editor/Data/Managed/UnityEngine/UnityEngine.TerrainModule.dll"
-r:"C:/Program Files/UnityEditor/2021.1.10f1/Editor/Data/Managed/UnityEngine/UnityEngine.TerrainPhysicsModule.dll"
-r:"C:/Program Files/UnityEditor/2021.1.10f1/Editor/Data/Managed/UnityEngine/UnityEngine.TextCoreModule.dll"
-r:"C:/Program Files/UnityEditor/2021.1.10f1/Editor/Data/Managed/UnityEngine/UnityEngine.TextRenderingModule.dll"
-r:"C:/Program Files/UnityEditor/2021.1.10f1/Editor/Data/Managed/UnityEngine/UnityEngine.TilemapModule.dll"
-r:"C:/Program Files/UnityEditor/2021.1.10f1/Editor/Data/Managed/UnityEngine/UnityEngine.TLSModule.dll"
-r:"C:/Program Files/UnityEditor/2021.1.10f1/Editor/Data/Managed/UnityEngine/UnityEngine.UIElementsModule.dll"
-r:"C:/Program Files/UnityEditor/2021.1.10f1/Editor/Data/Managed/UnityEngine/UnityEngine.UIElementsNativeModule.dll"
-r:"C:/Program Files/UnityEditor/2021.1.10f1/Editor/Data/Managed/UnityEngine/UnityEngine.UIModule.dll"
-r:"C:/Program Files/UnityEditor/2021.1.10f1/Editor/Data/Managed/UnityEngine/UnityEngine.UmbraModule.dll"
-r:"C:/Program Files/UnityEditor/2021.1.10f1/Editor/Data/Managed/UnityEngine/UnityEngine.UNETModule.dll"
-r:"C:/Program Files/UnityEditor/2021.1.10f1/Editor/Data/Managed/UnityEngine/UnityEngine.UnityAnalyticsModule.dll"
-r:"C:/Program Files/UnityEditor/2021.1.10f1/Editor/Data/Managed/UnityEngine/UnityEngine.UnityConnectModule.dll"
-r:"C:/Program Files/UnityEditor/2021.1.10f1/Editor/Data/Managed/UnityEngine/UnityEngine.UnityCurlModule.dll"
-r:"C:/Program Files/UnityEditor/2021.1.10f1/Editor/Data/Managed/UnityEngine/UnityEngine.UnityTestProtocolModule.dll"
-r:"C:/Program Files/UnityEditor/2021.1.10f1/Editor/Data/Managed/UnityEngine/UnityEngine.UnityWebRequestAssetBundleModule.dll"
-r:"C:/Program Files/UnityEditor/2021.1.10f1/Editor/Data/Managed/UnityEngine/UnityEngine.UnityWebRequestAudioModule.dll"
-r:"C:/Program Files/UnityEditor/2021.1.10f1/Editor/Data/Managed/UnityEngine/UnityEngine.UnityWebRequestModule.dll"
-r:"C:/Program Files/UnityEditor/2021.1.10f1/Editor/Data/Managed/UnityEngine/UnityEngine.UnityWebRequestTextureModule.dll"
-r:"C:/Program Files/UnityEditor/2021.1.10f1/Editor/Data/Managed/UnityEngine/UnityEngine.UnityWebRequestWWWModule.dll"
-r:"C:/Program Files/UnityEditor/2021.1.10f1/Editor/Data/Managed/UnityEngine/UnityEngine.VehiclesModule.dll"
-r:"C:/Program Files/UnityEditor/2021.1.10f1/Editor/Data/Managed/UnityEngine/UnityEngine.VFXModule.dll"
-r:"C:/Program Files/UnityEditor/2021.1.10f1/Editor/Data/Managed/UnityEngine/UnityEngine.VideoModule.dll"
-r:"C:/Program Files/UnityEditor/2021.1.10f1/Editor/Data/Managed/UnityEngine/UnityEngine.VirtualTexturingModule.dll"
-r:"C:/Program Files/UnityEditor/2021.1.10f1/Editor/Data/Managed/UnityEngine/UnityEngine.VRModule.dll"
-r:"C:/Program Files/UnityEditor/2021.1.10f1/Editor/Data/Managed/UnityEngine/UnityEngine.WindModule.dll"
-r:"C:/Program Files/UnityEditor/2021.1.10f1/Editor/Data/Managed/UnityEngine/UnityEngine.XRModule.dll"
-r:"C:/Program Files/UnityEditor/2021.1.10f1/Editor/Data/MonoBleedingEdge/lib/mono/4.7.1-api/Facades/Microsoft.Win32.Primitives.dll"
-r:"C:/Program Files/UnityEditor/2021.1.10f1/Editor/Data/MonoBleedingEdge/lib/mono/4.7.1-api/Facades/netstandard.dll"
-r:"C:/Program Files/UnityEditor/2021.1.10f1/Editor/Data/MonoBleedingEdge/lib/mono/4.7.1-api/Facades/System.AppContext.dll"
-r:"C:/Program Files/UnityEditor/2021.1.10f1/Editor/Data/MonoBleedingEdge/lib/mono/4.7.1-api/Facades/System.Collections.Concurrent.dll"
-r:"C:/Program Files/UnityEditor/2021.1.10f1/Editor/Data/MonoBleedingEdge/lib/mono/4.7.1-api/Facades/System.Collections.dll"
-r:"C:/Program Files/UnityEditor/2021.1.10f1/Editor/Data/MonoBleedingEdge/lib/mono/4.7.1-api/Facades/System.Collections.NonGeneric.dll"
-r:"C:/Program Files/UnityEditor/2021.1.10f1/Editor/Data/MonoBleedingEdge/lib/mono/4.7.1-api/Facades/System.Collections.Specialized.dll"
-r:"C:/Program Files/UnityEditor/2021.1.10f1/Editor/Data/MonoBleedingEdge/lib/mono/4.7.1-api/Facades/System.ComponentModel.Annotations.dll"
-r:"C:/Program Files/UnityEditor/2021.1.10f1/Editor/Data/MonoBleedingEdge/lib/mono/4.7.1-api/Facades/System.ComponentModel.dll"
-r:"C:/Program Files/UnityEditor/2021.1.10f1/Editor/Data/MonoBleedingEdge/lib/mono/4.7.1-api/Facades/System.ComponentModel.EventBasedAsync.dll"
-r:"C:/Program Files/UnityEditor/2021.1.10f1/Editor/Data/MonoBleedingEdge/lib/mono/4.7.1-api/Facades/System.ComponentModel.Primitives.dll"
-r:"C:/Program Files/UnityEditor/2021.1.10f1/Editor/Data/MonoBleedingEdge/lib/mono/4.7.1-api/Facades/System.ComponentModel.TypeConverter.dll"
-r:"C:/Program Files/UnityEditor/2021.1.10f1/Editor/Data/MonoBleedingEdge/lib/mono/4.7.1-api/Facades/System.Console.dll"
-r:"C:/Program Files/UnityEditor/2021.1.10f1/Editor/Data/MonoBleedingEdge/lib/mono/4.7.1-api/Facades/System.Data.Common.dll"
-r:"C:/Program Files/UnityEditor/2021.1.10f1/Editor/Data/MonoBleedingEdge/lib/mono/4.7.1-api/Facades/System.Diagnostics.Contracts.dll"
-r:"C:/Program Files/UnityEditor/2021.1.10f1/Editor/Data/MonoBleedingEdge/lib/mono/4.7.1-api/Facades/System.Diagnostics.Debug.dll"
-r:"C:/Program Files/UnityEditor/2021.1.10f1/Editor/Data/MonoBleedingEdge/lib/mono/4.7.1-api/Facades/System.Diagnostics.FileVersionInfo.dll"
-r:"C:/Program Files/UnityEditor/2021.1.10f1/Editor/Data/MonoBleedingEdge/lib/mono/4.7.1-api/Facades/System.Diagnostics.Process.dll"
-r:"C:/Program Files/UnityEditor/2021.1.10f1/Editor/Data/MonoBleedingEdge/lib/mono/4.7.1-api/Facades/System.Diagnostics.StackTrace.dll"
-r:"C:/Program Files/UnityEditor/2021.1.10f1/Editor/Data/MonoBleedingEdge/lib/mono/4.7.1-api/Facades/System.Diagnostics.TextWriterTraceListener.dll"
-r:"C:/Program Files/UnityEditor/2021.1.10f1/Editor/Data/MonoBleedingEdge/lib/mono/4.7.1-api/Facades/System.Diagnostics.Tools.dll"
-r:"C:/Program Files/UnityEditor/2021.1.10f1/Editor/Data/MonoBleedingEdge/lib/mono/4.7.1-api/Facades/System.Diagnostics.TraceSource.dll"
-r:"C:/Program Files/UnityEditor/2021.1.10f1/Editor/Data/MonoBleedingEdge/lib/mono/4.7.1-api/Facades/System.Drawing.Primitives.dll"
-r:"C:/Program Files/UnityEditor/2021.1.10f1/Editor/Data/MonoBleedingEdge/lib/mono/4.7.1-api/Facades/System.Dynamic.Runtime.dll"
-r:"C:/Program Files/UnityEditor/2021.1.10f1/Editor/Data/MonoBleedingEdge/lib/mono/4.7.1-api/Facades/System.Globalization.Calendars.dll"
-r:"C:/Program Files/UnityEditor/2021.1.10f1/Editor/Data/MonoBleedingEdge/lib/mono/4.7.1-api/Facades/System.Globalization.dll"
-r:"C:/Program Files/UnityEditor/2021.1.10f1/Editor/Data/MonoBleedingEdge/lib/mono/4.7.1-api/Facades/System.Globalization.Extensions.dll"
-r:"C:/Program Files/UnityEditor/2021.1.10f1/Editor/Data/MonoBleedingEdge/lib/mono/4.7.1-api/Facades/System.IO.Compression.ZipFile.dll"
-r:"C:/Program Files/UnityEditor/2021.1.10f1/Editor/Data/MonoBleedingEdge/lib/mono/4.7.1-api/Facades/System.IO.dll"
-r:"C:/Program Files/UnityEditor/2021.1.10f1/Editor/Data/MonoBleedingEdge/lib/mono/4.7.1-api/Facades/System.IO.FileSystem.dll"
-r:"C:/Program Files/UnityEditor/2021.1.10f1/Editor/Data/MonoBleedingEdge/lib/mono/4.7.1-api/Facades/System.IO.FileSystem.DriveInfo.dll"
-r:"C:/Program Files/UnityEditor/2021.1.10f1/Editor/Data/MonoBleedingEdge/lib/mono/4.7.1-api/Facades/System.IO.FileSystem.Primitives.dll"
-r:"C:/Program Files/UnityEditor/2021.1.10f1/Editor/Data/MonoBleedingEdge/lib/mono/4.7.1-api/Facades/System.IO.FileSystem.Watcher.dll"
-r:"C:/Program Files/UnityEditor/2021.1.10f1/Editor/Data/MonoBleedingEdge/lib/mono/4.7.1-api/Facades/System.IO.IsolatedStorage.dll"
-r:"C:/Program Files/UnityEditor/2021.1.10f1/Editor/Data/MonoBleedingEdge/lib/mono/4.7.1-api/Facades/System.IO.MemoryMappedFiles.dll"
-r:"C:/Program Files/UnityEditor/2021.1.10f1/Editor/Data/MonoBleedingEdge/lib/mono/4.7.1-api/Facades/System.IO.Pipes.dll"
-r:"C:/Program Files/UnityEditor/2021.1.10f1/Editor/Data/MonoBleedingEdge/lib/mono/4.7.1-api/Facades/System.IO.UnmanagedMemoryStream.dll"
-r:"C:/Program Files/UnityEditor/2021.1.10f1/Editor/Data/MonoBleedingEdge/lib/mono/4.7.1-api/Facades/System.Linq.dll"
-r:"C:/Program Files/UnityEditor/2021.1.10f1/Editor/Data/MonoBleedingEdge/lib/mono/4.7.1-api/Facades/System.Linq.Expressions.dll"
-r:"C:/Program Files/UnityEditor/2021.1.10f1/Editor/Data/MonoBleedingEdge/lib/mono/4.7.1-api/Facades/System.Linq.Parallel.dll"
-r:"C:/Program Files/UnityEditor/2021.1.10f1/Editor/Data/MonoBleedingEdge/lib/mono/4.7.1-api/Facades/System.Linq.Queryable.dll"
-r:"C:/Program Files/UnityEditor/2021.1.10f1/Editor/Data/MonoBleedingEdge/lib/mono/4.7.1-api/Facades/System.Net.Http.Rtc.dll"
-r:"C:/Program Files/UnityEditor/2021.1.10f1/Editor/Data/MonoBleedingEdge/lib/mono/4.7.1-api/Facades/System.Net.NameResolution.dll"
-r:"C:/Program Files/UnityEditor/2021.1.10f1/Editor/Data/MonoBleedingEdge/lib/mono/4.7.1-api/Facades/System.Net.NetworkInformation.dll"
-r:"C:/Program Files/UnityEditor/2021.1.10f1/Editor/Data/MonoBleedingEdge/lib/mono/4.7.1-api/Facades/System.Net.Ping.dll"
-r:"C:/Program Files/UnityEditor/2021.1.10f1/Editor/Data/MonoBleedingEdge/lib/mono/4.7.1-api/Facades/System.Net.Primitives.dll"
-r:"C:/Program Files/UnityEditor/2021.1.10f1/Editor/Data/MonoBleedingEdge/lib/mono/4.7.1-api/Facades/System.Net.Requests.dll"
-r:"C:/Program Files/UnityEditor/2021.1.10f1/Editor/Data/MonoBleedingEdge/lib/mono/4.7.1-api/Facades/System.Net.Security.dll"
-r:"C:/Program Files/UnityEditor/2021.1.10f1/Editor/Data/MonoBleedingEdge/lib/mono/4.7.1-api/Facades/System.Net.Sockets.dll"
-r:"C:/Program Files/UnityEditor/2021.1.10f1/Editor/Data/MonoBleedingEdge/lib/mono/4.7.1-api/Facades/System.Net.WebHeaderCollection.dll"
-r:"C:/Program Files/UnityEditor/2021.1.10f1/Editor/Data/MonoBleedingEdge/lib/mono/4.7.1-api/Facades/System.Net.WebSockets.Client.dll"
-r:"C:/Program Files/UnityEditor/2021.1.10f1/Editor/Data/MonoBleedingEdge/lib/mono/4.7.1-api/Facades/System.Net.WebSockets.dll"
-r:"C:/Program Files/UnityEditor/2021.1.10f1/Editor/Data/MonoBleedingEdge/lib/mono/4.7.1-api/Facades/System.ObjectModel.dll"
-r:"C:/Program Files/UnityEditor/2021.1.10f1/Editor/Data/MonoBleedingEdge/lib/mono/4.7.1-api/Facades/System.Reflection.dll"
-r:"C:/Program Files/UnityEditor/2021.1.10f1/Editor/Data/MonoBleedingEdge/lib/mono/4.7.1-api/Facades/System.Reflection.Emit.dll"
-r:"C:/Program Files/UnityEditor/2021.1.10f1/Editor/Data/MonoBleedingEdge/lib/mono/4.7.1-api/Facades/System.Reflection.Emit.ILGeneration.dll"
-r:"C:/Program Files/UnityEditor/2021.1.10f1/Editor/Data/MonoBleedingEdge/lib/mono/4.7.1-api/Facades/System.Reflection.Emit.Lightweight.dll"
-r:"C:/Program Files/UnityEditor/2021.1.10f1/Editor/Data/MonoBleedingEdge/lib/mono/4.7.1-api/Facades/System.Reflection.Extensions.dll"
-r:"C:/Program Files/UnityEditor/2021.1.10f1/Editor/Data/MonoBleedingEdge/lib/mono/4.7.1-api/Facades/System.Reflection.Primitives.dll"
-r:"C:/Program Files/UnityEditor/2021.1.10f1/Editor/Data/MonoBleedingEdge/lib/mono/4.7.1-api/Facades/System.Resources.Reader.dll"
-r:"C:/Program Files/UnityEditor/2021.1.10f1/Editor/Data/MonoBleedingEdge/lib/mono/4.7.1-api/Facades/System.Resources.ResourceManager.dll"
-r:"C:/Program Files/UnityEditor/2021.1.10f1/Editor/Data/MonoBleedingEdge/lib/mono/4.7.1-api/Facades/System.Resources.Writer.dll"
-r:"C:/Program Files/UnityEditor/2021.1.10f1/Editor/Data/MonoBleedingEdge/lib/mono/4.7.1-api/Facades/System.Runtime.CompilerServices.VisualC.dll"
-r:"C:/Program Files/UnityEditor/2021.1.10f1/Editor/Data/MonoBleedingEdge/lib/mono/4.7.1-api/Facades/System.Runtime.dll"
-r:"C:/Program Files/UnityEditor/2021.1.10f1/Editor/Data/MonoBleedingEdge/lib/mono/4.7.1-api/Facades/System.Runtime.Extensions.dll"
-r:"C:/Program Files/UnityEditor/2021.1.10f1/Editor/Data/MonoBleedingEdge/lib/mono/4.7.1-api/Facades/System.Runtime.Handles.dll"
-r:"C:/Program Files/UnityEditor/2021.1.10f1/Editor/Data/MonoBleedingEdge/lib/mono/4.7.1-api/Facades/System.Runtime.InteropServices.dll"
-r:"C:/Program Files/UnityEditor/2021.1.10f1/Editor/Data/MonoBleedingEdge/lib/mono/4.7.1-api/Facades/System.Runtime.InteropServices.RuntimeInformation.dll"
-r:"C:/Program Files/UnityEditor/2021.1.10f1/Editor/Data/MonoBleedingEdge/lib/mono/4.7.1-api/Facades/System.Runtime.InteropServices.WindowsRuntime.dll"
-r:"C:/Program Files/UnityEditor/2021.1.10f1/Editor/Data/MonoBleedingEdge/lib/mono/4.7.1-api/Facades/System.Runtime.Numerics.dll"
-r:"C:/Program Files/UnityEditor/2021.1.10f1/Editor/Data/MonoBleedingEdge/lib/mono/4.7.1-api/Facades/System.Runtime.Serialization.Formatters.dll"
-r:"C:/Program Files/UnityEditor/2021.1.10f1/Editor/Data/MonoBleedingEdge/lib/mono/4.7.1-api/Facades/System.Runtime.Serialization.Json.dll"
-r:"C:/Program Files/UnityEditor/2021.1.10f1/Editor/Data/MonoBleedingEdge/lib/mono/4.7.1-api/Facades/System.Runtime.Serialization.Primitives.dll"
-r:"C:/Program Files/UnityEditor/2021.1.10f1/Editor/Data/MonoBleedingEdge/lib/mono/4.7.1-api/Facades/System.Runtime.Serialization.Xml.dll"
-r:"C:/Program Files/UnityEditor/2021.1.10f1/Editor/Data/MonoBleedingEdge/lib/mono/4.7.1-api/Facades/System.Security.Claims.dll"
-r:"C:/Program Files/UnityEditor/2021.1.10f1/Editor/Data/MonoBleedingEdge/lib/mono/4.7.1-api/Facades/System.Security.Cryptography.Algorithms.dll"
-r:"C:/Program Files/UnityEditor/2021.1.10f1/Editor/Data/MonoBleedingEdge/lib/mono/4.7.1-api/Facades/System.Security.Cryptography.Csp.dll"
-r:"C:/Program Files/UnityEditor/2021.1.10f1/Editor/Data/MonoBleedingEdge/lib/mono/4.7.1-api/Facades/System.Security.Cryptography.Encoding.dll"
-r:"C:/Program Files/UnityEditor/2021.1.10f1/Editor/Data/MonoBleedingEdge/lib/mono/4.7.1-api/Facades/System.Security.Cryptography.Primitives.dll"
-r:"C:/Program Files/UnityEditor/2021.1.10f1/Editor/Data/MonoBleedingEdge/lib/mono/4.7.1-api/Facades/System.Security.Cryptography.X509Certificates.dll"
-r:"C:/Program Files/UnityEditor/2021.1.10f1/Editor/Data/MonoBleedingEdge/lib/mono/4.7.1-api/Facades/System.Security.Principal.dll"
-r:"C:/Program Files/UnityEditor/2021.1.10f1/Editor/Data/MonoBleedingEdge/lib/mono/4.7.1-api/Facades/System.Security.SecureString.dll"
-r:"C:/Program Files/UnityEditor/2021.1.10f1/Editor/Data/MonoBleedingEdge/lib/mono/4.7.1-api/Facades/System.ServiceModel.Duplex.dll"
-r:"C:/Program Files/UnityEditor/2021.1.10f1/Editor/Data/MonoBleedingEdge/lib/mono/4.7.1-api/Facades/System.ServiceModel.Http.dll"
-r:"C:/Program Files/UnityEditor/2021.1.10f1/Editor/Data/MonoBleedingEdge/lib/mono/4.7.1-api/Facades/System.ServiceModel.NetTcp.dll"
-r:"C:/Program Files/UnityEditor/2021.1.10f1/Editor/Data/MonoBleedingEdge/lib/mono/4.7.1-api/Facades/System.ServiceModel.Primitives.dll"
-r:"C:/Program Files/UnityEditor/2021.1.10f1/Editor/Data/MonoBleedingEdge/lib/mono/4.7.1-api/Facades/System.ServiceModel.Security.dll"
-r:"C:/Program Files/UnityEditor/2021.1.10f1/Editor/Data/MonoBleedingEdge/lib/mono/4.7.1-api/Facades/System.Text.Encoding.dll"
-r:"C:/Program Files/UnityEditor/2021.1.10f1/Editor/Data/MonoBleedingEdge/lib/mono/4.7.1-api/Facades/System.Text.Encoding.Extensions.dll"
-r:"C:/Program Files/UnityEditor/2021.1.10f1/Editor/Data/MonoBleedingEdge/lib/mono/4.7.1-api/Facades/System.Text.RegularExpressions.dll"
-r:"C:/Program Files/UnityEditor/2021.1.10f1/Editor/Data/MonoBleedingEdge/lib/mono/4.7.1-api/Facades/System.Threading.dll"
-r:"C:/Program Files/UnityEditor/2021.1.10f1/Editor/Data/MonoBleedingEdge/lib/mono/4.7.1-api/Facades/System.Threading.Overlapped.dll"
-r:"C:/Program Files/UnityEditor/2021.1.10f1/Editor/Data/MonoBleedingEdge/lib/mono/4.7.1-api/Facades/System.Threading.Tasks.dll"
-r:"C:/Program Files/UnityEditor/2021.1.10f1/Editor/Data/MonoBleedingEdge/lib/mono/4.7.1-api/Facades/System.Threading.Tasks.Parallel.dll"
-r:"C:/Program Files/UnityEditor/2021.1.10f1/Editor/Data/MonoBleedingEdge/lib/mono/4.7.1-api/Facades/System.Threading.Thread.dll"
-r:"C:/Program Files/UnityEditor/2021.1.10f1/Editor/Data/MonoBleedingEdge/lib/mono/4.7.1-api/Facades/System.Threading.ThreadPool.dll"
-r:"C:/Program Files/UnityEditor/2021.1.10f1/Editor/Data/MonoBleedingEdge/lib/mono/4.7.1-api/Facades/System.Threading.Timer.dll"
-r:"C:/Program Files/UnityEditor/2021.1.10f1/Editor/Data/MonoBleedingEdge/lib/mono/4.7.1-api/Facades/System.ValueTuple.dll"
-r:"C:/Program Files/UnityEditor/2021.1.10f1/Editor/Data/MonoBleedingEdge/lib/mono/4.7.1-api/Facades/System.Xml.ReaderWriter.dll"
-r:"C:/Program Files/UnityEditor/2021.1.10f1/Editor/Data/MonoBleedingEdge/lib/mono/4.7.1-api/Facades/System.Xml.XDocument.dll"
-r:"C:/Program Files/UnityEditor/2021.1.10f1/Editor/Data/MonoBleedingEdge/lib/mono/4.7.1-api/Facades/System.Xml.XmlDocument.dll"
-r:"C:/Program Files/UnityEditor/2021.1.10f1/Editor/Data/MonoBleedingEdge/lib/mono/4.7.1-api/Facades/System.Xml.XmlSerializer.dll"
-r:"C:/Program Files/UnityEditor/2021.1.10f1/Editor/Data/MonoBleedingEdge/lib/mono/4.7.1-api/Facades/System.Xml.XPath.dll"
-r:"C:/Program Files/UnityEditor/2021.1.10f1/Editor/Data/MonoBleedingEdge/lib/mono/4.7.1-api/Facades/System.Xml.XPath.XDocument.dll"
-r:"C:/Program Files/UnityEditor/2021.1.10f1/Editor/Data/MonoBleedingEdge/lib/mono/4.7.1-api/Microsoft.CSharp.dll"
-r:"C:/Program Files/UnityEditor/2021.1.10f1/Editor/Data/MonoBleedingEdge/lib/mono/4.7.1-api/mscorlib.dll"
-r:"C:/Program Files/UnityEditor/2021.1.10f1/Editor/Data/MonoBleedingEdge/lib/mono/4.7.1-api/System.Core.dll"
-r:"C:/Program Files/UnityEditor/2021.1.10f1/Editor/Data/MonoBleedingEdge/lib/mono/4.7.1-api/System.Data.dll"
-r:"C:/Program Files/UnityEditor/2021.1.10f1/Editor/Data/MonoBleedingEdge/lib/mono/4.7.1-api/System.dll"
-r:"C:/Program Files/UnityEditor/2021.1.10f1/Editor/Data/MonoBleedingEdge/lib/mono/4.7.1-api/System.IO.Compression.dll"
-r:"C:/Program Files/UnityEditor/2021.1.10f1/Editor/Data/MonoBleedingEdge/lib/mono/4.7.1-api/System.Net.Http.dll"
-r:"C:/Program Files/UnityEditor/2021.1.10f1/Editor/Data/MonoBleedingEdge/lib/mono/4.7.1-api/System.Numerics.dll"
-r:"C:/Program Files/UnityEditor/2021.1.10f1/Editor/Data/MonoBleedingEdge/lib/mono/4.7.1-api/System.Numerics.Vectors.dll"
-r:"C:/Program Files/UnityEditor/2021.1.10f1/Editor/Data/MonoBleedingEdge/lib/mono/4.7.1-api/System.Runtime.Serialization.dll"
-r:"C:/Program Files/UnityEditor/2021.1.10f1/Editor/Data/MonoBleedingEdge/lib/mono/4.7.1-api/System.Xml.dll"
-r:"C:/Program Files/UnityEditor/2021.1.10f1/Editor/Data/MonoBleedingEdge/lib/mono/4.7.1-api/System.Xml.Linq.dll"
-r:"C:/Program Files/UnityEditor/2021.1.10f1/Editor/Data/PlaybackEngines/AndroidPlayer/UnityEditor.Android.Extensions.dll"
-r:"C:/Program Files/UnityEditor/2021.1.10f1/Editor/Data/PlaybackEngines/WindowsStandaloneSupport/UnityEditor.WindowsStandalone.Extensions.dll"
-r:"D:/Proj/Zero World/Zero World/Library/PackageCache/com.mlapi.contrib.transport.enet@e47ee18972/Runtime/enet-csharp/ENet-CSharp.dll"
-r:"D:/Proj/Zero World/Zero World/Library/PackageCache/com.unity.collab-proxy@1.5.7/Lib/Editor/PlasticSCM/log4netPlastic.dll"
-r:"D:/Proj/Zero World/Zero World/Library/PackageCache/com.unity.collab-proxy@1.5.7/Lib/Editor/PlasticSCM/Unity.Plastic.Antlr3.Runtime.dll"
-r:"D:/Proj/Zero World/Zero World/Library/PackageCache/com.unity.collab-proxy@1.5.7/Lib/Editor/PlasticSCM/unityplastic.dll"
-r:"D:/Proj/Zero World/Zero World/Library/PackageCache/com.unity.nuget.mono-cecil@1.10.1-preview.1/Mono.Cecil.dll"
-r:"D:/Proj/Zero World/Zero World/Library/PackageCache/com.unity.nuget.newtonsoft-json@2.0.0/Runtime/Newtonsoft.Json.dll"
-r:"Library/Bee/artifacts/1900b0aE.dag/UnityEditor.UI.ref.dll"
-r:"Library/Bee/artifacts/1900b0aE.dag/UnityEngine.UI.ref.dll"
"Assets/Plugins/UniRx/Scripts/Asynchronous/WebRequestExtensions.cs"
"Assets/Plugins/UniRx/Scripts/Disposables/BooleanDisposable.cs"
"Assets/Plugins/UniRx/Scripts/Disposables/CancellationDisposable.cs"
"Assets/Plugins/UniRx/Scripts/Disposables/CompositeDisposable.cs"
"Assets/Plugins/UniRx/Scripts/Disposables/DictionaryDisposable.cs"
"Assets/Plugins/UniRx/Scripts/Disposables/Disposable.cs"
"Assets/Plugins/UniRx/Scripts/Disposables/DisposableExtensions.cs"
"Assets/Plugins/UniRx/Scripts/Disposables/ICancelable.cs"
"Assets/Plugins/UniRx/Scripts/Disposables/MultipleAssignmentDisposable.cs"
"Assets/Plugins/UniRx/Scripts/Disposables/RefCountDisposable.cs"
"Assets/Plugins/UniRx/Scripts/Disposables/ScheduledDisposable.cs"
"Assets/Plugins/UniRx/Scripts/Disposables/SerialDisposable.cs"
"Assets/Plugins/UniRx/Scripts/Disposables/SingleAssignmentDisposable.cs"
"Assets/Plugins/UniRx/Scripts/Disposables/StableCompositeDisposable.cs"
"Assets/Plugins/UniRx/Scripts/EventPattern.cs"
"Assets/Plugins/UniRx/Scripts/InternalUtil/AscynLock.cs"
"Assets/Plugins/UniRx/Scripts/InternalUtil/CancellableTaskCompletionSource.cs"
"Assets/Plugins/UniRx/Scripts/InternalUtil/ExceptionExtensions.cs"
"Assets/Plugins/UniRx/Scripts/InternalUtil/ImmutableList.cs"
"Assets/Plugins/UniRx/Scripts/InternalUtil/ListObserver.cs"
"Assets/Plugins/UniRx/Scripts/InternalUtil/MicroCoroutine.cs"
"Assets/Plugins/UniRx/Scripts/InternalUtil/PriorityQueue.cs"
"Assets/Plugins/UniRx/Scripts/InternalUtil/PromiseHelper.cs"
"Assets/Plugins/UniRx/Scripts/InternalUtil/ScheduledItem.cs"
"Assets/Plugins/UniRx/Scripts/InternalUtil/ThreadSafeQueueWorker.cs"
"Assets/Plugins/UniRx/Scripts/InternalUtil/UnityEqualityComparer.cs"
"Assets/Plugins/UniRx/Scripts/Notification.cs"
"Assets/Plugins/UniRx/Scripts/Notifiers/BooleanNotifier.cs"
"Assets/Plugins/UniRx/Scripts/Notifiers/CountNotifier.cs"
"Assets/Plugins/UniRx/Scripts/Notifiers/MessageBroker.cs"
"Assets/Plugins/UniRx/Scripts/Notifiers/ScheduledNotifier.cs"
"Assets/Plugins/UniRx/Scripts/Observable.Aggregate.cs"
"Assets/Plugins/UniRx/Scripts/Observable.Awaiter.cs"
"Assets/Plugins/UniRx/Scripts/Observable.Binding.cs"
"Assets/Plugins/UniRx/Scripts/Observable.Blocking.cs"
"Assets/Plugins/UniRx/Scripts/Observable.Concatenate.cs"
"Assets/Plugins/UniRx/Scripts/Observable.Concurrency.cs"
"Assets/Plugins/UniRx/Scripts/Observable.Conversions.cs"
"Assets/Plugins/UniRx/Scripts/Observable.Creation.cs"
"Assets/Plugins/UniRx/Scripts/Observable.cs"
"Assets/Plugins/UniRx/Scripts/Observable.ErrorHandling.cs"
"Assets/Plugins/UniRx/Scripts/Observable.Events.cs"
"Assets/Plugins/UniRx/Scripts/Observable.FromAsync.cs"
"Assets/Plugins/UniRx/Scripts/Observable.Joins.cs"
"Assets/Plugins/UniRx/Scripts/Observable.Paging.cs"
"Assets/Plugins/UniRx/Scripts/Observable.Time.cs"
"Assets/Plugins/UniRx/Scripts/Observer.cs"
"Assets/Plugins/UniRx/Scripts/Operators/Aggregate.cs"
"Assets/Plugins/UniRx/Scripts/Operators/Amb.cs"
"Assets/Plugins/UniRx/Scripts/Operators/AsObservable.cs"
"Assets/Plugins/UniRx/Scripts/Operators/AsSingleUnitObservable.cs"
"Assets/Plugins/UniRx/Scripts/Operators/AsUnitObservable.cs"
"Assets/Plugins/UniRx/Scripts/Operators/Buffer.cs"
"Assets/Plugins/UniRx/Scripts/Operators/Cast.cs"
"Assets/Plugins/UniRx/Scripts/Operators/Catch.cs"
"Assets/Plugins/UniRx/Scripts/Operators/CombineLatest.cs"
"Assets/Plugins/UniRx/Scripts/Operators/Concat.cs"
"Assets/Plugins/UniRx/Scripts/Operators/ContinueWith.cs"
"Assets/Plugins/UniRx/Scripts/Operators/Create.cs"
"Assets/Plugins/UniRx/Scripts/Operators/DefaultIfEmpty.cs"
"Assets/Plugins/UniRx/Scripts/Operators/Defer.cs"
"Assets/Plugins/UniRx/Scripts/Operators/Delay.cs"
"Assets/Plugins/UniRx/Scripts/Operators/DelaySubscription.cs"
"Assets/Plugins/UniRx/Scripts/Operators/Dematerialize.cs"
"Assets/Plugins/UniRx/Scripts/Operators/Distinct.cs"
"Assets/Plugins/UniRx/Scripts/Operators/DistinctUntilChanged.cs"
"Assets/Plugins/UniRx/Scripts/Operators/Do.cs"
"Assets/Plugins/UniRx/Scripts/Operators/Empty.cs"
"Assets/Plugins/UniRx/Scripts/Operators/Finally.cs"
"Assets/Plugins/UniRx/Scripts/Operators/First.cs"
"Assets/Plugins/UniRx/Scripts/Operators/ForEachAsync.cs"
"Assets/Plugins/UniRx/Scripts/Operators/FromEvent.cs"
"Assets/Plugins/UniRx/Scripts/Operators/GroupBy.cs"
"Assets/Plugins/UniRx/Scripts/Operators/IgnoreElements.cs"
"Assets/Plugins/UniRx/Scripts/Operators/Last.cs"
"Assets/Plugins/UniRx/Scripts/Operators/Materialize.cs"
"Assets/Plugins/UniRx/Scripts/Operators/Merge.cs"
"Assets/Plugins/UniRx/Scripts/Operators/Never.cs"
"Assets/Plugins/UniRx/Scripts/Operators/ObserveOn.cs"
"Assets/Plugins/UniRx/Scripts/Operators/OfType.cs"
"Assets/Plugins/UniRx/Scripts/Operators/OperatorObservableBase.cs"
"Assets/Plugins/UniRx/Scripts/Operators/OperatorObserverBase.cs"
"Assets/Plugins/UniRx/Scripts/Operators/PairWise.cs"
"Assets/Plugins/UniRx/Scripts/Operators/Range.cs"
"Assets/Plugins/UniRx/Scripts/Operators/RefCount.cs"
"Assets/Plugins/UniRx/Scripts/Operators/Repeat.cs"
"Assets/Plugins/UniRx/Scripts/Operators/RepeatSafe.cs"
"Assets/Plugins/UniRx/Scripts/Operators/Return.cs"
"Assets/Plugins/UniRx/Scripts/Operators/Sample.cs"
"Assets/Plugins/UniRx/Scripts/Operators/Scan.cs"
"Assets/Plugins/UniRx/Scripts/Operators/Select.cs"
"Assets/Plugins/UniRx/Scripts/Operators/SelectMany.cs"
"Assets/Plugins/UniRx/Scripts/Operators/SelectWhere.cs"
"Assets/Plugins/UniRx/Scripts/Operators/Single.cs"
"Assets/Plugins/UniRx/Scripts/Operators/Skip.cs"
"Assets/Plugins/UniRx/Scripts/Operators/SkipUntil.cs"
"Assets/Plugins/UniRx/Scripts/Operators/SkipWhile.cs"
"Assets/Plugins/UniRx/Scripts/Operators/Start.cs"
"Assets/Plugins/UniRx/Scripts/Operators/StartWith.cs"
"Assets/Plugins/UniRx/Scripts/Operators/SubscribeOn.cs"
"Assets/Plugins/UniRx/Scripts/Operators/Switch.cs"
"Assets/Plugins/UniRx/Scripts/Operators/Synchronize.cs"
"Assets/Plugins/UniRx/Scripts/Operators/SynchronizedObserver.cs"
"Assets/Plugins/UniRx/Scripts/Operators/Take.cs"
"Assets/Plugins/UniRx/Scripts/Operators/TakeLast.cs"
"Assets/Plugins/UniRx/Scripts/Operators/TakeUntil.cs"
"Assets/Plugins/UniRx/Scripts/Operators/TakeWhile.cs"
"Assets/Plugins/UniRx/Scripts/Operators/Throttle.cs"
"Assets/Plugins/UniRx/Scripts/Operators/ThrottleFirst.cs"
"Assets/Plugins/UniRx/Scripts/Operators/Throw.cs"
"Assets/Plugins/UniRx/Scripts/Operators/TimeInterval.cs"
"Assets/Plugins/UniRx/Scripts/Operators/Timeout.cs"
"Assets/Plugins/UniRx/Scripts/Operators/Timer.cs"
"Assets/Plugins/UniRx/Scripts/Operators/Timestamp.cs"
"Assets/Plugins/UniRx/Scripts/Operators/ToArray.cs"
"Assets/Plugins/UniRx/Scripts/Operators/ToList.cs"
"Assets/Plugins/UniRx/Scripts/Operators/ToObservable.cs"
"Assets/Plugins/UniRx/Scripts/Operators/Wait.cs"
"Assets/Plugins/UniRx/Scripts/Operators/WhenAll.cs"
"Assets/Plugins/UniRx/Scripts/Operators/Where.cs"
"Assets/Plugins/UniRx/Scripts/Operators/WhereSelect.cs"
"Assets/Plugins/UniRx/Scripts/Operators/WithLatestFrom.cs"
"Assets/Plugins/UniRx/Scripts/Operators/Zip.cs"
"Assets/Plugins/UniRx/Scripts/Operators/ZipLatest.cs"
"Assets/Plugins/UniRx/Scripts/Pair.cs"
"Assets/Plugins/UniRx/Scripts/Schedulers/CurrentThreadScheduler.cs"
"Assets/Plugins/UniRx/Scripts/Schedulers/ImmediateScheduler.cs"
"Assets/Plugins/UniRx/Scripts/Schedulers/IScheduler.cs"
"Assets/Plugins/UniRx/Scripts/Schedulers/Scheduler.cs"
"Assets/Plugins/UniRx/Scripts/Schedulers/ThreadPoolScheduler.cs"
"Assets/Plugins/UniRx/Scripts/Subjects/AsyncSubject.cs"
"Assets/Plugins/UniRx/Scripts/Subjects/BehaviorSubject.cs"
"Assets/Plugins/UniRx/Scripts/Subjects/ConnectableObservable.cs"
"Assets/Plugins/UniRx/Scripts/Subjects/ISubject.cs"
"Assets/Plugins/UniRx/Scripts/Subjects/ReplaySubject.cs"
"Assets/Plugins/UniRx/Scripts/Subjects/Subject.cs"
"Assets/Plugins/UniRx/Scripts/Subjects/SubjectExtensions.cs"
"Assets/Plugins/UniRx/Scripts/System/IObservable.cs"
"Assets/Plugins/UniRx/Scripts/System/IObserver.cs"
"Assets/Plugins/UniRx/Scripts/System/IOptimizedObservable.cs"
"Assets/Plugins/UniRx/Scripts/System/IProgress.cs"
"Assets/Plugins/UniRx/Scripts/System/Tuple.cs"
"Assets/Plugins/UniRx/Scripts/System/Unit.cs"
"Assets/Plugins/UniRx/Scripts/Tasks/TaskObservableExtensions.cs"
"Assets/Plugins/UniRx/Scripts/TimeInterval.cs"
"Assets/Plugins/UniRx/Scripts/Timestamped.cs"
"Assets/Plugins/UniRx/Scripts/UnityEngineBridge/AsyncOperationExtensions.cs"
"Assets/Plugins/UniRx/Scripts/UnityEngineBridge/CancellationToken.cs"
"Assets/Plugins/UniRx/Scripts/UnityEngineBridge/CoroutineAsyncBridge.cs"
"Assets/Plugins/UniRx/Scripts/UnityEngineBridge/Diagnostics/LogEntry.cs"
"Assets/Plugins/UniRx/Scripts/UnityEngineBridge/Diagnostics/LogEntryExtensions.cs"
"Assets/Plugins/UniRx/Scripts/UnityEngineBridge/Diagnostics/Logger.cs"
"Assets/Plugins/UniRx/Scripts/UnityEngineBridge/Diagnostics/ObservableDebugExtensions.cs"
"Assets/Plugins/UniRx/Scripts/UnityEngineBridge/Diagnostics/ObservableLogger.cs"
"Assets/Plugins/UniRx/Scripts/UnityEngineBridge/Diagnostics/UnityDebugSink.cs"
"Assets/Plugins/UniRx/Scripts/UnityEngineBridge/FrameInterval.cs"
"Assets/Plugins/UniRx/Scripts/UnityEngineBridge/InspectableReactiveProperty.cs"
"Assets/Plugins/UniRx/Scripts/UnityEngineBridge/InspectorDisplayDrawer.cs"
"Assets/Plugins/UniRx/Scripts/UnityEngineBridge/LifetimeDisposableExtensions.cs"
"Assets/Plugins/UniRx/Scripts/UnityEngineBridge/MainThreadDispatcher.cs"
"Assets/Plugins/UniRx/Scripts/UnityEngineBridge/MainThreadScheduler.cs"
"Assets/Plugins/UniRx/Scripts/UnityEngineBridge/Observable.Unity.cs"
"Assets/Plugins/UniRx/Scripts/UnityEngineBridge/ObservableWWW.cs"
"Assets/Plugins/UniRx/Scripts/UnityEngineBridge/ObserveExtensions.cs"
"Assets/Plugins/UniRx/Scripts/UnityEngineBridge/Operators/BatchFrame.cs"
"Assets/Plugins/UniRx/Scripts/UnityEngineBridge/Operators/DelayFrame.cs"
"Assets/Plugins/UniRx/Scripts/UnityEngineBridge/Operators/DelayFrameSubscription.cs"
"Assets/Plugins/UniRx/Scripts/UnityEngineBridge/Operators/FrameInterval.cs"
"Assets/Plugins/UniRx/Scripts/UnityEngineBridge/Operators/FrameTimeInterval.cs"
"Assets/Plugins/UniRx/Scripts/UnityEngineBridge/Operators/FromCoroutine.cs"
"Assets/Plugins/UniRx/Scripts/UnityEngineBridge/Operators/RepeatUntil.cs"
"Assets/Plugins/UniRx/Scripts/UnityEngineBridge/Operators/SampleFrame.cs"
"Assets/Plugins/UniRx/Scripts/UnityEngineBridge/Operators/SubscribeOnMainThread.cs"
"Assets/Plugins/UniRx/Scripts/UnityEngineBridge/Operators/ThrottleFirstFrame.cs"
"Assets/Plugins/UniRx/Scripts/UnityEngineBridge/Operators/ThrottleFrame.cs"
"Assets/Plugins/UniRx/Scripts/UnityEngineBridge/Operators/TimeoutFrame.cs"
"Assets/Plugins/UniRx/Scripts/UnityEngineBridge/ReactiveCollection.cs"
"Assets/Plugins/UniRx/Scripts/UnityEngineBridge/ReactiveCommand.cs"
"Assets/Plugins/UniRx/Scripts/UnityEngineBridge/ReactiveDictionary.cs"
"Assets/Plugins/UniRx/Scripts/UnityEngineBridge/ReactiveProperty.cs"
"Assets/Plugins/UniRx/Scripts/UnityEngineBridge/ScenePlaybackDetector.cs"
"Assets/Plugins/UniRx/Scripts/UnityEngineBridge/Toolkit/ObjectPool.cs"
"Assets/Plugins/UniRx/Scripts/UnityEngineBridge/Triggers/ObservableAnimatorTrigger.cs"
"Assets/Plugins/UniRx/Scripts/UnityEngineBridge/Triggers/ObservableBeginDragTrigger.cs"
"Assets/Plugins/UniRx/Scripts/UnityEngineBridge/Triggers/ObservableCancelTrigger.cs"
"Assets/Plugins/UniRx/Scripts/UnityEngineBridge/Triggers/ObservableCanvasGroupChangedTrigger.cs"
"Assets/Plugins/UniRx/Scripts/UnityEngineBridge/Triggers/ObservableCollision2DTrigger.cs"
"Assets/Plugins/UniRx/Scripts/UnityEngineBridge/Triggers/ObservableCollisionTrigger.cs"
"Assets/Plugins/UniRx/Scripts/UnityEngineBridge/Triggers/ObservableDeselectTrigger.cs"
"Assets/Plugins/UniRx/Scripts/UnityEngineBridge/Triggers/ObservableDestroyTrigger.cs"
"Assets/Plugins/UniRx/Scripts/UnityEngineBridge/Triggers/ObservableDragTrigger.cs"
"Assets/Plugins/UniRx/Scripts/UnityEngineBridge/Triggers/ObservableDropTrigger.cs"
"Assets/Plugins/UniRx/Scripts/UnityEngineBridge/Triggers/ObservableEnableTrigger.cs"
"Assets/Plugins/UniRx/Scripts/UnityEngineBridge/Triggers/ObservableEndDragTrigger.cs"
"Assets/Plugins/UniRx/Scripts/UnityEngineBridge/Triggers/ObservableEventTrigger.cs"
"Assets/Plugins/UniRx/Scripts/UnityEngineBridge/Triggers/ObservableFixedUpdateTrigger.cs"
"Assets/Plugins/UniRx/Scripts/UnityEngineBridge/Triggers/ObservableInitializePotentialDragTrigger.cs"
"Assets/Plugins/UniRx/Scripts/UnityEngineBridge/Triggers/ObservableJointTrigger.cs"
"Assets/Plugins/UniRx/Scripts/UnityEngineBridge/Triggers/ObservableLateUpdateTrigger.cs"
"Assets/Plugins/UniRx/Scripts/UnityEngineBridge/Triggers/ObservableMouseTrigger.cs"
"Assets/Plugins/UniRx/Scripts/UnityEngineBridge/Triggers/ObservableMoveTrigger.cs"
"Assets/Plugins/UniRx/Scripts/UnityEngineBridge/Triggers/ObservableParticleTrigger.cs"
"Assets/Plugins/UniRx/Scripts/UnityEngineBridge/Triggers/ObservablePointerClickTrigger.cs"
"Assets/Plugins/UniRx/Scripts/UnityEngineBridge/Triggers/ObservablePointerDownTrigger.cs"
"Assets/Plugins/UniRx/Scripts/UnityEngineBridge/Triggers/ObservablePointerEnterTrigger.cs"
"Assets/Plugins/UniRx/Scripts/UnityEngineBridge/Triggers/ObservablePointerExitTrigger.cs"
"Assets/Plugins/UniRx/Scripts/UnityEngineBridge/Triggers/ObservablePointerUpTrigger.cs"
"Assets/Plugins/UniRx/Scripts/UnityEngineBridge/Triggers/ObservableRectTransformTrigger.cs"
"Assets/Plugins/UniRx/Scripts/UnityEngineBridge/Triggers/ObservableScrollTrigger.cs"
"Assets/Plugins/UniRx/Scripts/UnityEngineBridge/Triggers/ObservableSelectTrigger.cs"
"Assets/Plugins/UniRx/Scripts/UnityEngineBridge/Triggers/ObservableStateMachineTrigger.cs"
"Assets/Plugins/UniRx/Scripts/UnityEngineBridge/Triggers/ObservableSubmitTrigger.cs"
"Assets/Plugins/UniRx/Scripts/UnityEngineBridge/Triggers/ObservableTransformChangedTrigger.cs"
"Assets/Plugins/UniRx/Scripts/UnityEngineBridge/Triggers/ObservableTrigger2DTrigger.cs"
"Assets/Plugins/UniRx/Scripts/UnityEngineBridge/Triggers/ObservableTriggerBase.cs"
"Assets/Plugins/UniRx/Scripts/UnityEngineBridge/Triggers/ObservableTriggerExtensions.Component.cs"
"Assets/Plugins/UniRx/Scripts/UnityEngineBridge/Triggers/ObservableTriggerExtensions.cs"
"Assets/Plugins/UniRx/Scripts/UnityEngineBridge/Triggers/ObservableTriggerTrigger.cs"
"Assets/Plugins/UniRx/Scripts/UnityEngineBridge/Triggers/ObservableUpdateSelectedTrigger.cs"
"Assets/Plugins/UniRx/Scripts/UnityEngineBridge/Triggers/ObservableUpdateTrigger.cs"
"Assets/Plugins/UniRx/Scripts/UnityEngineBridge/Triggers/ObservableVisibleTrigger.cs"
"Assets/Plugins/UniRx/Scripts/UnityEngineBridge/UnityEventExtensions.cs"
"Assets/Plugins/UniRx/Scripts/UnityEngineBridge/UnityGraphicExtensions.cs"
"Assets/Plugins/UniRx/Scripts/UnityEngineBridge/UnityUIComponentExtensions.cs"
"Assets/Plugins/UniRx/Scripts/UnityEngineBridge/YieldInstructionCache.cs"
"Assets/Plugins/UniRx/Scripts/UnityWinRTBridge/Thread.cs"
"Assets/Plugins/UniRx/Scripts/UnityWinRTBridge/ThreadPoolScheduler_UnityWinRT.cs"
-langversion:8.0

/deterministic
/optimize+
/debug:portable
/nologo
/RuntimeMetadataVersion:v4.0.30319

/nowarn:0169
/nowarn:0649
/utf8output
/preferreduilang:en-US
