Library\Bee\artifacts\movedfrom\Unity.Multiplayer.MLAPI.Runtime.ref.dll_4877754222611491081.movedfrom
Library\Bee\artifacts\movedfrom\Unity.CompilationPipeline.Common.dll_1254781912958591110.movedfrom
Library\Bee\artifacts\movedfrom\UnityEditor.Graphs.dll_16433222717278306570.movedfrom
Library\Bee\artifacts\movedfrom\UnityEditor.CoreModule.dll_12276061751799385816.movedfrom
Library\Bee\artifacts\movedfrom\UnityEditor.DeviceSimulatorModule.dll_16866796411016076905.movedfrom
Library\Bee\artifacts\movedfrom\UnityEditor.dll_373770260538173.movedfrom
Library\Bee\artifacts\movedfrom\UnityEditor.GraphViewModule.dll_6056101278184950126.movedfrom
Library\Bee\artifacts\movedfrom\UnityEditor.PackageManagerUIModule.dll_695269473925701172.movedfrom
Library\Bee\artifacts\movedfrom\UnityEditor.QuickSearchModule.dll_6233309037904153296.movedfrom
Library\Bee\artifacts\movedfrom\UnityEditor.SceneTemplateModule.dll_6270499504621093713.movedfrom
Library\Bee\artifacts\movedfrom\UnityEditor.UIBuilderModule.dll_12147410111898927778.movedfrom
Library\Bee\artifacts\movedfrom\UnityEditor.UIElementsModule.dll_15298869763885752084.movedfrom
Library\Bee\artifacts\movedfrom\UnityEditor.UIElementsSamplesModule.dll_13584919059640176537.movedfrom
Library\Bee\artifacts\movedfrom\UnityEditor.UIServiceModule.dll_16250771438904054460.movedfrom
Library\Bee\artifacts\movedfrom\UnityEditor.UnityConnectModule.dll_14147949581819128206.movedfrom
Library\Bee\artifacts\movedfrom\UnityEngine.AccessibilityModule.dll_9919940873966725870.movedfrom
Library\Bee\artifacts\movedfrom\UnityEngine.AIModule.dll_7802663185239208492.movedfrom
Library\Bee\artifacts\movedfrom\UnityEngine.AndroidJNIModule.dll_5951904731440827882.movedfrom
Library\Bee\artifacts\movedfrom\UnityEngine.AnimationModule.dll_2490794263095123476.movedfrom
Library\Bee\artifacts\movedfrom\UnityEngine.ARModule.dll_2718878774129119477.movedfrom
Library\Bee\artifacts\movedfrom\UnityEngine.AssetBundleModule.dll_11126807520338313154.movedfrom
Library\Bee\artifacts\movedfrom\UnityEngine.AudioModule.dll_1054913819994970630.movedfrom
Library\Bee\artifacts\movedfrom\UnityEngine.ClothModule.dll_8470192838931396842.movedfrom
Library\Bee\artifacts\movedfrom\UnityEngine.ClusterInputModule.dll_4896558783326518356.movedfrom
Library\Bee\artifacts\movedfrom\UnityEngine.ClusterRendererModule.dll_17275711869661572077.movedfrom
Library\Bee\artifacts\movedfrom\UnityEngine.CoreModule.dll_14807317094341310979.movedfrom
Library\Bee\artifacts\movedfrom\UnityEngine.CrashReportingModule.dll_8290197495750585723.movedfrom
Library\Bee\artifacts\movedfrom\UnityEngine.DirectorModule.dll_5600473323384975584.movedfrom
Library\Bee\artifacts\movedfrom\UnityEngine.dll_3649493263448993826.movedfrom
Library\Bee\artifacts\movedfrom\UnityEngine.DSPGraphModule.dll_5983667872206586369.movedfrom
Library\Bee\artifacts\movedfrom\UnityEngine.GameCenterModule.dll_9000078733096271579.movedfrom
Library\Bee\artifacts\movedfrom\UnityEngine.GIModule.dll_325642226692676166.movedfrom
Library\Bee\artifacts\movedfrom\UnityEngine.GridModule.dll_12317138684806500346.movedfrom
Library\Bee\artifacts\movedfrom\UnityEngine.HotReloadModule.dll_11806699024672668054.movedfrom
Library\Bee\artifacts\movedfrom\UnityEngine.ImageConversionModule.dll_6607244761937093601.movedfrom
Library\Bee\artifacts\movedfrom\UnityEngine.IMGUIModule.dll_5117054472667065831.movedfrom
Library\Bee\artifacts\movedfrom\UnityEngine.InputLegacyModule.dll_3147866173733516723.movedfrom
Library\Bee\artifacts\movedfrom\UnityEngine.InputModule.dll_8437940544850329258.movedfrom
Library\Bee\artifacts\movedfrom\UnityEngine.JSONSerializeModule.dll_16844094716850310008.movedfrom
Library\Bee\artifacts\movedfrom\UnityEngine.LocalizationModule.dll_9385744167985672013.movedfrom
Library\Bee\artifacts\movedfrom\UnityEngine.ParticleSystemModule.dll_14276124943092381961.movedfrom
Library\Bee\artifacts\movedfrom\UnityEngine.PerformanceReportingModule.dll_8773031307719791042.movedfrom
Library\Bee\artifacts\movedfrom\UnityEngine.Physics2DModule.dll_8013878597907027369.movedfrom
Library\Bee\artifacts\movedfrom\UnityEngine.PhysicsModule.dll_9789753005701276055.movedfrom
Library\Bee\artifacts\movedfrom\UnityEngine.ProfilerModule.dll_9223119180314916845.movedfrom
Library\Bee\artifacts\movedfrom\UnityEngine.RuntimeInitializeOnLoadManagerInitializerModule.dll_13682412157643577458.movedfrom
Library\Bee\artifacts\movedfrom\UnityEngine.ScreenCaptureModule.dll_264002000794007514.movedfrom
Library\Bee\artifacts\movedfrom\UnityEngine.SharedInternalsModule.dll_16123701336096120625.movedfrom
Library\Bee\artifacts\movedfrom\UnityEngine.SpriteMaskModule.dll_7355264932561015893.movedfrom
Library\Bee\artifacts\movedfrom\UnityEngine.SpriteShapeModule.dll_12955600311645059020.movedfrom
Library\Bee\artifacts\movedfrom\UnityEngine.StreamingModule.dll_15503080415662789970.movedfrom
Library\Bee\artifacts\movedfrom\UnityEngine.SubstanceModule.dll_12957161556343804768.movedfrom
Library\Bee\artifacts\movedfrom\UnityEngine.SubsystemsModule.dll_15042177641811000424.movedfrom
Library\Bee\artifacts\movedfrom\UnityEngine.TerrainModule.dll_11683089415019784837.movedfrom
Library\Bee\artifacts\movedfrom\UnityEngine.TerrainPhysicsModule.dll_14310650514866467734.movedfrom
Library\Bee\artifacts\movedfrom\UnityEngine.TextCoreModule.dll_16605814966963413232.movedfrom
Library\Bee\artifacts\movedfrom\UnityEngine.TextRenderingModule.dll_3236221670230931407.movedfrom
Library\Bee\artifacts\movedfrom\UnityEngine.TilemapModule.dll_4692490697580628878.movedfrom
Library\Bee\artifacts\movedfrom\UnityEngine.TLSModule.dll_1734929991045788843.movedfrom
Library\Bee\artifacts\movedfrom\UnityEngine.UIElementsModule.dll_15347966565876496479.movedfrom
Library\Bee\artifacts\movedfrom\UnityEngine.UIElementsNativeModule.dll_6061788458861203030.movedfrom
Library\Bee\artifacts\movedfrom\UnityEngine.UIModule.dll_7474918755030169560.movedfrom
Library\Bee\artifacts\movedfrom\UnityEngine.UmbraModule.dll_9905802209132152185.movedfrom
Library\Bee\artifacts\movedfrom\UnityEngine.UNETModule.dll_6927785663648984956.movedfrom
Library\Bee\artifacts\movedfrom\UnityEngine.UnityAnalyticsModule.dll_16554788891044137733.movedfrom
Library\Bee\artifacts\movedfrom\UnityEngine.UnityConnectModule.dll_12805740617753635385.movedfrom
Library\Bee\artifacts\movedfrom\UnityEngine.UnityCurlModule.dll_6173790092083171329.movedfrom
Library\Bee\artifacts\movedfrom\UnityEngine.UnityTestProtocolModule.dll_8667751269001372911.movedfrom
Library\Bee\artifacts\movedfrom\UnityEngine.UnityWebRequestAssetBundleModule.dll_7020410518029085078.movedfrom
Library\Bee\artifacts\movedfrom\UnityEngine.UnityWebRequestAudioModule.dll_17418908907567291482.movedfrom
Library\Bee\artifacts\movedfrom\UnityEngine.UnityWebRequestModule.dll_7876986808788500064.movedfrom
Library\Bee\artifacts\movedfrom\UnityEngine.UnityWebRequestTextureModule.dll_11485752469297996143.movedfrom
Library\Bee\artifacts\movedfrom\UnityEngine.UnityWebRequestWWWModule.dll_5581659844825252267.movedfrom
Library\Bee\artifacts\movedfrom\UnityEngine.VehiclesModule.dll_14230207485285990523.movedfrom
Library\Bee\artifacts\movedfrom\UnityEngine.VFXModule.dll_11020957074541649432.movedfrom
Library\Bee\artifacts\movedfrom\UnityEngine.VideoModule.dll_3723723668254455211.movedfrom
Library\Bee\artifacts\movedfrom\UnityEngine.VirtualTexturingModule.dll_8695466729140817633.movedfrom
Library\Bee\artifacts\movedfrom\UnityEngine.VRModule.dll_13442793566635359568.movedfrom
Library\Bee\artifacts\movedfrom\UnityEngine.WindModule.dll_4885565132572129388.movedfrom
Library\Bee\artifacts\movedfrom\UnityEngine.XRModule.dll_17099367938356365998.movedfrom
Library\Bee\artifacts\movedfrom\UnityEditor.Android.Extensions.dll_14544807741429311744.movedfrom
Library\Bee\artifacts\movedfrom\UnityEditor.WindowsStandalone.Extensions.dll_4998882904994834504.movedfrom